Lab 5 team
…
## 
##    1    2    3    4    5    6    7 
## 5360 4374 4347 4314 4621 5358 5873

The days of the week that have the most accidents compared to the other days of the week are Friday, Saturday, and Sunday. Saturdays have the most overall accidents.

#2.)what time of the day do accidents happen (use variable HOUR)?

timeacc <- acc %>% 
  group_by(HOUR) %>% 
  summarize(n=n()) %>%
  arrange(desc(n))
timeacc

## # A tibble: 25 x 2
##     HOUR     n
##    <int> <int>
##  1    18  2000
##  2    20  1930
##  3    17  1916
##  4    19  1880
##  5    21  1880
##  6    16  1770
##  7    15  1760
##  8    22  1683
##  9    14  1613
## 10    23  1516
## # ... with 15 more rows
…
## # A tibble: 7 x 2
##   DAY_WEEK Weekdaycount
##      <int>        <int>
## 1        1         7758
## 2        2         6821
## 3        3         6744
## 4        4         6778
## 5        5         7212
## 6        6         8354
## 7        7         8607

tal2

## # A tibble: 25 x 2
##    HOUR  Hourcount
##    <fct>     <int>
##  1 0          1734
##  2 1          1505
##  3 2          1630
##  4 3          1223
##  5 4          1076
##  6 5          1532
##  7 6          1958
##  8 7          1894
##  9 8          1527
## 10 9          1561
## # ... with 15 more rows
…
